<?xml version="1.0" standalone="no"?>
<!DOCTYPE svg PUBLIC "-//W3C//DTD SVG 20010904//EN"
 "http://www.w3.org/TR/2001/REC-SVG-20010904/DTD/svg10.dtd">
<svg version="1.0" xmlns="http://www.w3.org/2000/svg"
 width="653.000000pt" height="628.000000pt" viewBox="0 0 653.000000 628.000000"
 preserveAspectRatio="xMidYMid meet">

<g transform="translate(0.000000,628.000000) scale(0.100000,-0.100000)"
fill="#000000" stroke="none">
<path d="M2565 4646 c-223 -59 -535 -176 -535 -200 0 -6 32 -161 72 -343 39
-183 69 -335 66 -339 -4 -3 -129 -51 -280 -106 -150 -55 -278 -105 -284 -112
-8 -8 7 -78 57 -261 37 -137 65 -252 63 -254 -2 -3 -44 1 -93 7 -95 13 -234
50 -312 83 l-47 20 49 93 c159 301 108 628 -144 925 l-28 33 -42 -28 c-113
-74 -212 -197 -253 -313 -25 -71 -33 -215 -15 -278 9 -31 9 -31 -59 26 -132
110 -251 152 -382 131 -105 -16 -240 -77 -255 -115 -15 -41 62 -250 131 -353
55 -83 121 -146 201 -194 132 -77 263 -113 385 -106 l72 4 -7 -61 c-15 -130
-22 -388 -14 -540 19 -391 102 -696 249 -917 293 -440 677 -732 1150 -872 223
-66 468 -96 785 -96 490 1 865 74 1169 227 l59 30 31 -41 c45 -60 128 -99 210
-98 35 0 86 7 113 16 45 15 56 15 122 1 40 -8 97 -15 127 -15 50 0 58 3 98 41
59 53 76 106 83 247 l6 113 39 16 c58 23 122 100 142 171 33 118 13 274 -43
344 -18 22 -18 23 29 93 26 38 68 109 95 157 l47 88 42 0 c109 0 227 53 310
140 220 230 187 641 -64 809 -34 22 -80 46 -101 53 -27 8 -41 18 -43 32 -3 12
-14 73 -26 136 -29 152 -78 297 -155 455 -93 191 -178 314 -250 361 -26 17
-47 19 -185 18 -134 -1 -400 -25 -452 -40 -15 -4 -18 1 -18 30 0 19 -4 37 -9
41 -5 3 -110 17 -233 31 -123 15 -226 29 -229 33 -3 3 -2 123 2 266 5 143 5
263 1 267 -18 17 -639 115 -936 147 -333 37 -362 37 -511 -3z m495 -32 c189
-21 522 -69 735 -107 l180 -32 -4 -250 c-2 -137 -5 -252 -6 -253 -2 -2 -59 1
-127 7 -68 7 -197 15 -288 18 -159 5 -174 4 -433 -36 -148 -24 -270 -41 -272
-39 -1 2 -24 154 -49 338 -26 184 -49 346 -52 359 l-5 24 93 -7 c51 -4 154
-14 228 -22z m-1830 -585 c159 -271 172 -566 34 -817 -19 -35 -31 -68 -28 -74
11 -17 125 -65 220 -92 196 -55 385 -76 529 -57 104 14 184 41 420 141 598
253 1389 507 1916 614 262 54 622 95 725 83 58 -6 95 -40 179 -167 155 -233
252 -471 298 -735 l5 -30 -81 -1 c-141 -1 -270 -58 -377 -164 -163 -163 -212
-409 -119 -591 54 -107 195 -208 341 -244 l67 -17 -30 -62 c-17 -33 -54 -98
-81 -142 l-51 -81 -31 18 c-40 23 -218 66 -330 78 -153 18 -358 -20 -498 -90
-77 -39 -152 -109 -186 -174 -24 -45 -27 -61 -27 -157 0 -104 1 -107 33 -153
l32 -46 -72 6 c-398 34 -704 175 -989 455 -83 82 -119 126 -163 201 -80 138
-127 177 -205 170 -98 -9 -151 -128 -117 -262 23 -90 54 -137 159 -242 230
-231 480 -389 711 -447 236 -60 353 -74 588 -75 l218 0 0 -51 0 -51 -82 -38
c-192 -88 -447 -155 -723 -191 -182 -24 -584 -25 -754 -1 -374 53 -695 165
-956 335 -302 197 -585 521 -699 802 -125 305 -164 696 -133 1304 2 30 2 30
-50 27 -119 -6 -304 42 -403 104 -148 92 -253 227 -325 420 l-23 61 43 27 c54
34 138 63 207 72 132 17 276 -43 399 -166 73 -73 78 -76 64 -43 -25 61 -37
164 -26 230 22 135 86 249 209 371 l74 74 25 -33 c13 -18 42 -63 63 -99z
m2665 -94 c83 -8 239 -24 348 -36 l197 -22 0 -27 c0 -26 -3 -27 -102 -44 -134
-24 -521 -120 -721 -180 -87 -27 -160 -46 -161 -44 -3 4 -46 347 -46 367 0 12
27 13 168 7 92 -3 235 -13 317 -21z m-1710 -242 c24 -97 125 -546 123 -548 -7
-5 -47 -25 -52 -25 -2 0 -10 26 -16 58 -6 31 -19 86 -30 122 -10 36 -26 126
-35 200 -9 74 -19 137 -20 139 -2 2 -27 -2 -54 -9 -44 -10 -50 -15 -46 -33 2
-12 11 -71 20 -132 9 -60 30 -173 49 -250 18 -78 28 -142 23 -144 -5 -2 -13 2
-17 10 -9 14 -38 159 -74 374 -13 74 -25 137 -28 140 -2 3 -27 -2 -54 -10
l-50 -15 18 -97 c36 -188 80 -406 85 -419 3 -8 -1 -14 -9 -14 -14 0 -74 263
-99 433 -13 85 -15 87 -79 61 -31 -13 -40 -21 -35 -33 4 -9 15 -59 26 -111 10
-52 33 -155 50 -228 17 -73 29 -136 25 -139 -3 -4 -8 -4 -9 -2 -5 6 -94 365
-107 432 -6 31 -13 57 -15 57 -18 0 -95 -42 -95 -52 0 -7 25 -107 55 -222 30
-115 53 -212 50 -214 -2 -3 -9 6 -14 19 -11 31 -123 449 -125 468 -1 10 79 45
259 112 143 53 263 97 266 98 4 0 10 -11 14 -26z m-36 -213 c7 -58 26 -156 42
-218 33 -130 35 -157 13 -166 -9 -4 -18 -5 -20 -3 -7 7 -64 266 -79 357 -20
124 -19 148 3 152 24 5 28 -4 41 -122z m-135 53 c3 -16 19 -107 36 -203 17
-96 35 -193 40 -215 14 -59 13 -67 -12 -63 -20 3 -25 15 -45 103 -33 148 -73
386 -67 396 12 20 43 8 48 -18z m-82 -275 c40 -204 43 -228 27 -228 -13 0 -23
30 -52 153 -71 303 -72 309 -51 324 25 18 22 26 76 -249z m-162 155 c6 -32 29
-128 51 -215 21 -86 39 -161 39 -167 0 -6 -9 -11 -20 -11 -11 0 -20 1 -20 3 0
2 -25 97 -55 213 -51 193 -54 210 -38 222 27 19 31 15 43 -45z m3834 -617 c92
-45 165 -120 211 -218 92 -195 63 -392 -79 -534 -123 -123 -274 -158 -456
-107 -126 35 -244 126 -293 226 -123 252 38 581 325 662 35 10 82 14 136 11
71 -3 95 -9 156 -40z m-899 -1171 c-59 -15 -108 -64 -124 -122 -6 -21 -11 -73
-11 -115 0 -72 2 -80 30 -112 17 -18 49 -42 73 -51 91 -37 384 -36 435 1 42
31 73 102 79 186 6 84 -6 118 -57 162 -42 34 -25 33 31 -2 56 -37 73 -56 99
-115 30 -67 36 -158 16 -237 -22 -87 -59 -138 -126 -173 -68 -36 -136 -34
-222 5 l-58 27 -43 -24 c-152 -85 -415 -69 -578 35 -69 45 -83 76 -83 180 -1
104 25 170 89 229 93 85 256 138 435 139 l65 1 -50 -14z m218 -596 c23 -12 69
-24 104 -27 l62 -5 -5 -61 c-12 -147 -15 -170 -34 -206 -11 -21 -36 -51 -57
-67 -32 -24 -45 -28 -99 -27 -62 2 -138 20 -132 32 40 75 50 111 59 230 13
160 22 171 102 131z m-121 -132 c-11 -115 -25 -152 -80 -209 -43 -45 -80 -54
-162 -40 -86 16 -127 38 -154 86 -33 56 -39 94 -31 185 l7 78 46 -10 c84 -17
260 -12 322 9 30 11 56 16 58 12 2 -4 -1 -54 -6 -111z"/>
<path d="M3990 3134 c-221 -58 -408 -237 -486 -469 -36 -106 -44 -259 -20
-369 57 -253 237 -411 514 -447 111 -15 262 0 365 36 249 86 400 325 384 609
-16 309 -211 573 -473 640 -76 20 -210 20 -284 0z m249 -89 c112 -27 187 -71
282 -165 133 -132 189 -261 189 -437 0 -277 -181 -493 -460 -549 -164 -33
-352 0 -476 82 -225 150 -297 462 -169 732 123 260 380 396 634 337z"/>
<path d="M4306 2540 c-68 -21 -114 -102 -100 -176 9 -48 57 -101 103 -115 33
-10 45 -8 85 9 37 17 51 30 66 64 25 54 25 92 0 146 -15 33 -29 47 -62 62 -48
22 -51 22 -92 10z"/>
<path d="M1958 1830 c-215 -39 -350 -179 -260 -269 15 -15 36 -54 46 -86 38
-122 78 -155 183 -155 94 0 209 31 318 85 153 76 295 200 295 258 0 66 -85
125 -220 152 -92 18 -298 27 -362 15z m302 -35 c52 -8 116 -21 142 -30 55 -19
108 -64 108 -93 0 -32 -53 -95 -127 -150 -144 -106 -318 -172 -458 -172 -65 0
-74 3 -98 28 -24 25 -45 66 -61 119 -6 20 -4 21 51 22 49 0 109 15 186 46 9 4
17 13 17 21 0 18 4 18 -71 -10 -95 -35 -138 -40 -188 -20 -73 29 -82 83 -23
142 99 99 286 133 522 97z"/>
<path d="M5221 2454 c-41 -34 -58 -91 -42 -143 35 -120 187 -120 222 0 25 82
-32 169 -111 169 -27 0 -48 -8 -69 -26z"/>
</g>
</svg>
